<svg xmlns="http://www.w3.org/2000/svg" width="40" height="40" viewBox="0 0 40 40">
    <g fill="none" fill-rule="nonzero">
        <path d="M0 0h40v40H0z"/>
        <path stroke="#2B1B35" stroke-width="2" d="M36.416 20.443a2.144 2.144 0 0 0-.335-.672c-.023-.03-.06-.054-.083-.084a6.02 6.02 0 0 0-5.033-2.72 6.019 6.019 0 0 0-5.003 2.676l-3.47-.737a5.564 5.564 0 0 0-.692-2.616c-.01-.085 0-.176-.023-.256-.114-.4-.399-.685-.78-.884a5.488 5.488 0 0 0-.512-.476l1.518-1.896c.373.136.77.223 1.19.223a3.49 3.49 0 0 0 3.401-4.242.542.542 0 0 0-.073-.339c-.011-.015-.032-.025-.044-.04C26.01 7 24.724 6 23.193 6c-1.924 0-3.48 1.567-3.48 3.5 0 1.07.486 2.016 1.238 2.658l-1.499 1.826a5.495 5.495 0 0 0-2.526-.634c-2.26 0-4.194 1.356-5.067 3.297l-.592-.125c.032-.126.049-.256.062-.389.053-.521-.099-1.03-.105-1.08a2.72 2.72 0 0 0-2.595-1.936A2.735 2.735 0 0 0 5.9 15.858a2.735 2.735 0 0 0 2.728 2.743c.774 0 1.47-.327 1.965-.847l.858.233a5.555 5.555 0 0 0-.097.963c0 1.301.46 2.484 1.2 3.436l-1.842 2.243a4.995 4.995 0 0 0-2.666-.78C5.26 23.85 3 26.121 3 28.925S5.26 34 8.047 34c2.79 0 5.05-2.27 5.05-5.075 0-.797-.2-1.542-.525-2.213a1.904 1.904 0 0 0-.74-1.226l1.7-2.123c.942.733 2.11 1.187 3.394 1.187 2.397 0 4.422-1.528 5.208-3.662l2.95.802c-.097.433-.152.88-.152 1.343 0 3.351 2.7 6.066 6.033 6.066 3.334 0 6.035-2.715 6.035-6.066a6.05 6.05 0 0 0-.584-2.59z"/>
    </g>
</svg>
