<svg xmlns="http://www.w3.org/2000/svg" width="36" height="36" viewBox="0 0 36 36">
    <g fill="none" fill-rule="evenodd">
        <path d="M0 0h36v36H0z"/>
        <path fill="#2B1B35" d="M30.195 5.962l-2.672-.004L25.843 11H3.43l3.448 14h17.096l2.657-8.35h.006l2.794-8.39h3.382L34 5.961h-3.805zM10.62 31a2.381 2.381 0 1 0 0-4.762 2.381 2.381 0 0 0 0 4.762zm9.524 0a2.381 2.381 0 1 0 0-4.762 2.381 2.381 0 0 0 0 4.762z"/>
    </g>
</svg>
