<svg xmlns="http://www.w3.org/2000/svg" width="16" height="16" viewBox="0 0 16 16">
    <g fill="none" fill-rule="nonzero">
        <path d="M0 0h16v16H0z"/>
        <path fill="#0049BC" d="M9.5 3v2h-8V3h8zm5 4v2h-13V7h13zm-2 4v2h-11v-2h11z"/>
    </g>
</svg>
