<svg xmlns="http://www.w3.org/2000/svg" width="165" height="165" viewBox="0 0 165 165">
    <g fill="none" fill-rule="evenodd">
        <circle cx="82.5" cy="82.5" r="82.5" fill="#FFF"/>
        <g fill-rule="nonzero" transform="translate(44 48)">
            <path fill="#2B1B35" d="M15.798 68.934c-.464 0-.995-.2-1.394-.531L.597 55.133A2.058 2.058 0 0 1 0 53.675V21.961a8.61 8.61 0 0 1 8.63-8.625h44.274a8.61 8.61 0 0 1 8.63 8.625v25.078a8.61 8.61 0 0 1-8.63 8.625H15.798c-1.128 0-1.991-.862-1.991-1.99 0-1.128.863-1.99 1.991-1.99h37.106a4.617 4.617 0 0 0 4.647-4.645V21.961a4.617 4.617 0 0 0-4.647-4.645H8.63a4.617 4.617 0 0 0-4.646 4.645v30.917l13.21 12.672c.796.73.796 1.99.066 2.787a2.06 2.06 0 0 1-1.46.597z"/>
            <path fill="#FFF" d="M68.37 2.455H27.416c-3.651 0-6.638 2.985-6.638 6.634v25.08c0 3.648 2.987 6.634 6.638 6.634H67.84l7.169 13.535V9.088c0-3.649-2.987-6.634-6.638-6.634z"/>
            <path fill="#2B1B35" d="M75.009 56.328c-1.129 0-1.992-.863-1.992-1.99V9.088a4.617 4.617 0 0 0-4.646-4.644H27.415a4.617 4.617 0 0 0-4.647 4.644v25.08a4.617 4.617 0 0 0 4.647 4.644H67.84c1.128 0 1.991.862 1.991 1.99 0 1.128-.863 1.99-1.991 1.99H27.415a8.61 8.61 0 0 1-8.63-8.625V9.09a8.61 8.61 0 0 1 8.63-8.625H68.37A8.61 8.61 0 0 1 77 9.09v45.315c0 1.061-.863 1.924-1.991 1.924z"/>
            <ellipse cx="33.389" cy="21.961" fill="#DFE6F1" rx="3.186" ry="3.185"/>
            <ellipse cx="46.2" cy="21.961" fill="#DFE6F1" rx="3.186" ry="3.185"/>
            <ellipse cx="59.011" cy="21.961" fill="#DFE6F1" rx="3.186" ry="3.185"/>
        </g>
    </g>
</svg>
