<?xml version="1.0" encoding="UTF-8"?>
<svg width="24px" height="24px" viewBox="0 0 24 24" version="1.1" xmlns="http://www.w3.org/2000/svg" xmlns:xlink="http://www.w3.org/1999/xlink">
    <!-- Generator: sketchtool 51.2 (57519) - http://www.bohemiancoding.com/sketch -->
    <title>1494A3CF-5453-43DD-ABE0-FA75A28A7499</title>
    <desc>Created with sketchtool.</desc>
    <defs></defs>
    <g id="Symbols" stroke="none" stroke-width="1" fill="none" fill-rule="evenodd">
        <g id="icon-payments-04" fill-rule="nonzero">
            <g>
                <rect id="place" x="0" y="0" width="24" height="24"></rect>
                <g id="if_159_834959" transform="translate(0.000000, 2.000000)" fill="#000000">
                    <path d="M23.75,5.55 L23.75,2.6 C23.75,1.15 22.6,-8.8817842e-16 21.15,-8.8817842e-16 L2.85,-8.8817842e-16 C1.4,-4.4408921e-16 0.25,1.2 0.25,2.6 L0.25,5.55 L23.75,5.55 Z" id="Shape"></path>
                    <path d="M0.25,7.5 L0.25,17.4 C0.25,18.85 1.4,20 2.85,20 L21.15,20 C22.6,20 23.75,18.85 23.75,17.4 L23.75,7.5 L0.25,7.5 Z M7.6,12.05 L4.7,12.05 C4.15,12.05 3.7,11.6 3.7,11.05 C3.7,10.5 4.15,10.05 4.7,10.05 L7.6,10.05 C8.15,10.05 8.6,10.5 8.6,11.05 C8.6,11.6 8.15,12.05 7.6,12.05 Z M11.5,16.85 L10.9,16.85 C10.35,16.85 9.9,16.4 9.9,15.85 C9.9,15.3 10.35,14.85 10.9,14.85 L11.5,14.85 C12.05,14.85 12.5,15.3 12.5,15.85 C12.5,16.4 12.05,16.85 11.5,16.85 Z M15.5,16.85 L14.9,16.85 C14.35,16.85 13.9,16.4 13.9,15.85 C13.9,15.3 14.35,14.85 14.9,14.85 L15.5,14.85 C16.05,14.85 16.5,15.3 16.5,15.85 C16.5,16.4 16.05,16.85 15.5,16.85 Z M19.5,16.85 L18.9,16.85 C18.35,16.85 17.9,16.4 17.9,15.85 C17.9,15.3 18.35,14.85 18.9,14.85 L19.5,14.85 C20.05,14.85 20.5,15.3 20.5,15.85 C20.5,16.4 20.05,16.85 19.5,16.85 Z" id="Shape"></path>
                </g>
            </g>
        </g>
    </g>
</svg>