<?xml version="1.0" encoding="UTF-8"?>
<svg width="24px" height="24px" viewBox="0 0 24 24" version="1.1" xmlns="http://www.w3.org/2000/svg" xmlns:xlink="http://www.w3.org/1999/xlink">
    <!-- Generator: sketchtool 51.2 (57519) - http://www.bohemiancoding.com/sketch -->
    <title>D4B8A99B-6E4D-44F2-84A8-4CF07422F76C</title>
    <desc>Created with sketchtool.</desc>
    <defs></defs>
    <g id="Symbols" stroke="none" stroke-width="1" fill="none" fill-rule="evenodd">
        <g id="icon-payments-01" fill-rule="nonzero">
            <g>
                <rect id="place" x="0" y="0" width="24" height="24"></rect>
                <g id="if_178_847150" transform="translate(0.000000, 5.000000)" fill="#000000">
                    <path d="M12,4.75 C10.9,4.75 10,6 10,7.5 C10,9 10.9,10.25 12,10.25 C13.1,10.25 14,9 14,7.5 C14,6 13.1,4.75 12,4.75 Z" id="Shape"></path>
                    <path d="M22.75,0.25 L1.25,0.25 C0.7,0.25 0.25,0.7 0.25,1.25 L0.25,13.75 C0.25,14.3 0.7,14.75 1.25,14.75 L22.8,14.75 C23.35,14.75 23.8,14.3 23.8,13.75 L23.8,1.25 C23.75,0.7 23.3,0.25 22.75,0.25 Z M5.95,7.75 C5.95,8.3 5.5,8.75 4.95,8.75 C4.4,8.75 3.95,8.3 3.95,7.75 L3.95,7.3 C3.95,6.75 4.4,6.3 4.95,6.3 C5.5,6.3 5.95,6.75 5.95,7.3 L5.95,7.75 Z M12,12.2 C9.8,12.2 8.05,10.1 8.05,7.5 C8.05,4.9 9.8,2.8 12,2.8 C14.2,2.8 15.95,4.9 15.95,7.5 C15.95,10.1 14.2,12.2 12,12.2 Z M20,7.75 C20,8.3 19.55,8.75 19,8.75 C18.45,8.75 18,8.3 18,7.75 L18,7.3 C18,6.75 18.45,6.3 19,6.3 C19.55,6.3 20,6.75 20,7.3 L20,7.75 Z" id="Shape"></path>
                </g>
            </g>
        </g>
    </g>
</svg>