<?xml version="1.0" encoding="UTF-8"?>
<svg width="24px" height="24px" viewBox="0 0 24 24" version="1.1" xmlns="http://www.w3.org/2000/svg" xmlns:xlink="http://www.w3.org/1999/xlink">
    <!-- Generator: sketchtool 51.2 (57519) - http://www.bohemiancoding.com/sketch -->
    <title>44990335-FBEE-4164-A5E4-D79370B3FDCD</title>
    <desc>Created with sketchtool.</desc>
    <defs></defs>
    <g id="Symbols" stroke="none" stroke-width="1" fill="none" fill-rule="evenodd">
        <g id="icon-contacts-03" fill-rule="nonzero">
            <g>
                <rect id="place" x="0" y="0" width="24" height="24"></rect>
                <g id="if_42_846748" transform="translate(0.000000, 4.000000)" fill="#000000">
                    <polygon id="Shape" points="8.15 7.85 0.25 1.4 0.25 15.3"></polygon>
                    <polygon id="Shape" points="1.95 0.2 12.1 8.5 22.25 0.2"></polygon>
                    <polygon id="Shape" points="15.95 7.95 23.75 15.3 23.75 1.55"></polygon>
                    <path d="M14.4,9.2 L12.7,10.6 C12.5,10.75 12.3,10.85 12.05,10.85 C11.8,10.85 11.6,10.75 11.4,10.6 L9.65,9.15 L1.55,16.8 L22.45,16.8 L14.4,9.2 Z" id="Shape"></path>
                </g>
            </g>
        </g>
    </g>
</svg>