<?xml version="1.0" encoding="UTF-8"?>
<svg width="24px" height="24px" viewBox="0 0 24 24" version="1.1" xmlns="http://www.w3.org/2000/svg" xmlns:xlink="http://www.w3.org/1999/xlink">
    <!-- Generator: sketchtool 51.2 (57519) - http://www.bohemiancoding.com/sketch -->
    <title>29761CE3-B4B1-498E-8BE4-84B7E7AC1CE5</title>
    <desc>Created with sketchtool.</desc>
    <defs></defs>
    <g id="Page-1" stroke="none" stroke-width="1" fill="none" fill-rule="evenodd">
        <g id="shop-contacts-1600" transform="translate(-340.000000, -471.000000)">
            <g id="icon-contacts-01" transform="translate(340.000000, 471.000000)">
                <g id="icon-/-phone">
                    <g>
                        <rect id="place" x="0" y="0" width="24" height="24"></rect>
                        <path d="M0.445118008,17.687625 L3.67934246,14.456625 C4.28032671,13.858125 5.24250099,13.858125 5.84048781,14.456625 L7.65692897,16.273125 C8.91285116,15.428625 10.6903258,13.916625 12.3089367,12.299625 C13.8900798,10.720125 15.4412486,8.906625 16.2865232,7.651125 L14.4655859,5.834625 C13.8690978,5.239125 13.8690978,4.276125 14.4655859,3.677625 L17.7013091,0.446625 C18.2977972,-0.148875 19.2614702,-0.148875 19.8549609,0.446625 L23.0921827,3.677625 C24.4769943,5.060625 23.8655191,6.607125 23.8655191,6.607125 C22.3937821,9.836625 20.346539,12.889125 16.6207364,16.609125 C12.8829441,20.347125 9.84355245,22.375125 6.61232543,23.845125 C6.61232543,23.845125 5.1136116,24.505125 3.67934246,23.075625 L0.445118008,19.841625 C-0.148372669,19.246125 -0.148372669,18.284625 0.445118008,17.687625" id="Fill-1" fill="#000000"></path>
                    </g>
                </g>
            </g>
        </g>
    </g>
</svg>