<svg xmlns="http://www.w3.org/2000/svg" xmlns:xlink="http://www.w3.org/1999/xlink" width="140" height="28" viewBox="0 0 140 28">
    <defs>
        <path id="a" d="M.195.344h5.808v5.46H.195z"/>
        <path id="c" d="M.137.001h8.766v6.89H.137z"/>
        <path id="e" d="M0 .36h20.853v17.777H0z"/>
        <path id="g" d="M.012.053h19.126V18.41H.012z"/>
    </defs>
    <g fill="none" fill-rule="evenodd">
        <g transform="translate(51.14 21.346)">
            <mask id="b" fill="#fff">
                <use xlink:href="#a"/>
            </mask>
            <path fill="#164193" d="M5.008 2.733c0 .581-.332.785-1.262.82H2.32c-.896 0-1.163-.34-1.163-.82V1.95c0-.443.3-.821 1.195-.821h1.395c.93 0 1.262.24 1.262.821v.784zM3.98.343H2.22c-.466 0-.764.104-.998.208-.033 0-.033.033-.066.033V.344h-.96v5.46h.96V4.096c.201.103.563.239 1.128.239h1.695c.663 0 1.162-.136 1.494-.441.367-.277.53-.683.53-1.162V1.95c0-.41-.133-.821-.462-1.127C5.208.514 4.71.344 3.98.344z" mask="url(#b)"/>
        </g>
        <path fill="#164193" d="M44.89 21.69h5.714v.784h-2.392v3.208h-.93v-3.208h-2.391v-.17zM43.365 24.523c0 .24 0 .34-.764.376h-2.989v-.989H42.6c.764.034.764.102.764.34v.273zm-.532-1.398h-3.221V21.69H38.648v3.992h4.087c.929 0 1.625-.341 1.625-1.124v-.411c0-.614-.566-1.022-1.527-1.022z"/>
        <g transform="translate(14.87 20.258)">
            <mask id="d" fill="#fff">
                <use xlink:href="#c"/>
            </mask>
            <path fill="#164193" d="M7.972 3.821c-.033.581-.364.785-1.294.82H6.18c-.896 0-1.163-.376-1.195-.82v-.784c0-.443.43-.821 1.195-.821h.498c.898 0 1.26.24 1.294.821v.784zm-3.918 0c0 .48-.331.82-1.194.82H2.393c-.927 0-1.292-.239-1.328-.82v-.784c.036-.58.4-.821 1.297-.821h.498c.894 0 1.16.342 1.194.821v.784zm2.857-2.389h-.863c-.433 0-.764.103-.964.207-.034 0-.067.033-.1.033V.002h-.93v1.67a2.466 2.466 0 0 0-1.062-.24H2.162c-.73 0-1.228.17-1.56.478-.331.306-.465.718-.465 1.127v.784c0 .48.166.885.498 1.162.365.305.862.441 1.528.441h.763c.53 0 .897-.136 1.128-.24v1.707h.931V5.185c.232.103.597.24 1.127.24h.766c.664 0 1.162-.137 1.527-.442.331-.277.498-.683.498-1.162v-.784c0-.41-.134-.821-.464-1.127-.334-.308-.83-.478-1.528-.478z" mask="url(#d)"/>
        </g>
        <path fill="#164193" d="M32.44 21.69h5.213v3.992h-.963v-3.208h-3.322v1.673c0 .477-.165.887-.464 1.162-.298.27-.73.373-1.262.373h-.332v-.783h.332c.566-.035.764-.17.798-.752V21.69zM29.32 21.69h1.292v3.992h-.995V22.51l-3.52 3.172h-1.295V21.69h.929v3.242zM118.641 24.523c0 .206-.033.343-.797.376h-2.988v-.989h3.022c.763.035.763.104.763.34v.273zm-.564-1.398h-3.222V21.69H113.893v3.992h4.083c.932 0 1.629-.341 1.629-1.124v-.411c0-.614-.533-1.022-1.528-1.022zm2.955-1.435h.166v3.992h-.93V21.69h.764zM104.762 24.08c0 .58-.366.786-1.129.819h-1.66c-.864-.033-1.13-.275-1.162-.82v-.784c.033-.614.298-.785 1.162-.822h1.66c.798 0 1.13.274 1.13.822v.784zm-1.095-2.39h-1.728c-.73 0-1.229.17-1.592.444-.333.306-.466.718-.466 1.161v.784c0 .51.166.924.531 1.194.33.274.865.409 1.527.409h1.694c.73 0 1.26-.168 1.627-.477.333-.272.462-.717.462-1.126v-.784c0-.41-.13-.855-.462-1.127-.332-.307-.829-.478-1.593-.478zM97.986 24.558c0 .205-.164.34-.795.34h-3.054v-.853h2.989c.928.067.826.17.86.341v.172zm-3.85-2.084H97.224c.499 0 .665.137.665.342v.139c0 .205-.135.306-.665.34h-3.086v-.821zm4.349 1.162c.234-.135.366-.375.366-.681v-.139c0-.716-.63-1.126-1.694-1.126h-4.019v3.992h4.085c1.096 0 1.728-.41 1.762-1.124v-.172c0-.274-.2-.58-.5-.75zM87.718 23.464h-2.955c-.83-.034-.764-.102-.798-.34v-.272c.034-.242.034-.342.798-.378h2.955v.99zM84.63 21.69c-.93 0-1.626.341-1.626 1.126v.41c0 .547.43.955 1.228 1.023l-1.961 1.433h1.462l1.76-1.433h2.224v1.433h.997V21.69H84.63zM74.006 24.899H70.52c.264-.376.294-.923.294-1.298v-1.128h3.192V24.9zm.96-3.21h-5.078v1.982c0 .613-.166 1.023-.565 1.228H68.858v2.147h.931v-1.364H74.537v1.364h.928v-2.147h-.499v-3.21z"/>
        <path fill="#164193" d="M82.272 21.69v3.992h-.962v-3.208h-3.287v1.673c0 .477-.167.887-.464 1.162-.333.27-.765.373-1.264.373h-.366v-.783h.366c.566-.035.73-.17.766-.752V21.69h5.21zM65.08 21.69h.165v3.992h-.962V21.69h.796zm-2.39 2.833c-.035.206-.035.341-.832.376h-2.952v-.99h2.988c.796.035.761.103.796.34v.274zm-.565-1.398h-3.219V21.69H57.942v3.992h4.048c.965 0 1.63-.341 1.63-1.124v-.411c0-.614-.533-1.022-1.495-1.022zM111.702 24.899h-3.552c.262-.376.298-.923.298-1.298v-1.128h3.254V24.9zm.93-3.209H107.518v1.981c0 .614-.167 1.023-.565 1.228H106.49v2.147h.93v-1.364h4.781v1.364h.93v-2.147h-.498V21.69z"/>
        <g transform="translate(0 .31)">
            <mask id="f" fill="#fff">
                <use xlink:href="#e"/>
            </mask>
            <path fill="#164193" d="M10.16 12.235H7.372l2.788-7.781.133-.444h.068l2.588 8.225H10.16zM13.48.359H7.24L0 18.137H5.18l.995-2.56h7.968l.863 2.56h5.846L13.48.36z" mask="url(#f)"/>
        </g>
        <path fill="#164193" d="M27.06 18.447h-5.113V.67h5.113v7.268h.037L32.84.67h6.109l-7.04 8.258 7.57 9.52h-6.442l-5.94-8.054h-.037zM46.122 15.07v-4.2h1.528c.299 0 .564.037.863.037 1.494.1 2.89.476 2.89 2.08 0 1.534-1.365 1.979-2.89 2.048-.299.035-.597.035-.897.035h-1.494zm0-11.022h1.461c.333 0 .631 0 .93.033 1.295.07 2.39.412 2.39 1.741 0 1.196-1.095 1.67-2.39 1.843-.332.035-.664.035-.996.035h-1.395V4.048zm2.954 14.364c3.388 0 7.404-.89 7.404-5.119 0-2.148-1.292-3.443-3.819-3.923V9.3c2.094-.648 3.322-1.876 3.322-4.126 0-3.036-2.622-4.505-6.175-4.505H41.04v17.743h8.035zM91.911 12.714a4.286 4.286 0 0 1-1.89.444V5.925c.694 0 1.325.136 1.89.41 1.094.578 1.86 1.74 1.86 3.242 0 1.397-.766 2.524-1.86 3.137zm-6.974.444c-.696 0-1.328-.17-1.858-.444-1.127-.613-1.893-1.74-1.893-3.137 0-1.536.766-2.629 1.893-3.21a4.075 4.075 0 0 1 1.858-.442v7.233zm14.08-3.581c0-4.302-2.99-6.62-7.106-7.164a16.06 16.06 0 0 0-1.89-.104V.67h-5.084v1.64c-.63 0-1.26.032-1.858.104-4.151.543-7.14 2.862-7.14 7.164 0 4.227 2.989 6.582 7.14 7.129.597.067 1.227.104 1.858.104v1.637h5.083V16.81c.662 0 1.293-.037 1.891-.104 4.117-.546 7.106-2.902 7.106-7.13z"/>
        <g transform="translate(100.466 .31)">
            <mask id="h" fill="#fff">
                <use xlink:href="#g"/>
            </mask>
            <path fill="#164193" d="M9.573 3.57c3.123 0 4.353 2.59 4.353 5.697 0 2.9-1.23 5.663-4.353 5.663-3.086 0-4.315-2.764-4.315-5.663 0-3.106 1.229-5.698 4.315-5.698m0 14.84c6.244 0 9.565-3.513 9.565-9.142 0-5.733-3.255-9.214-9.565-9.214C3.3.053.012 3.534.012 9.267c0 5.629 3.354 9.143 9.561 9.143" mask="url(#h)"/>
        </g>
        <path fill="#164193" d="M128.504 8.79c-.3.068-.597.068-.897.068h-1.33v-4.81h1.33c.3 0 .597.034.897.07 1.295.168 2.223.818 2.223 2.283 0 1.537-.928 2.22-2.223 2.39m0-8.087c-.4-.035-.832-.035-1.262-.035h-6.044v17.78h5.08v-6.246h2.226c4.581-.068 7.305-2.186 7.305-5.698 0-3.719-2.324-5.563-7.305-5.8M66.642 12.544h-2.79l2.79-7.71.167-.514h.033l2.59 8.224h-2.79zm4.882 5.903H77.3L69.962.669h-6.207L56.48 18.447h5.181l1.031-2.56H70.627l.897 2.56zM138.473 2.344a.303.303 0 0 1-.233.1h-.332v-.613h.333c.098.031.165.067.232.1a.504.504 0 0 1 .064.206.516.516 0 0 1-.064.207m.433-.241c0-.07 0-.135-.034-.241a.446.446 0 0 0-.231-.27c-.104-.07-.235-.102-.4-.138h-.7v2.08h.367v-.783h.033l.3.444.198.34h.467l-.567-.784c.198 0 .334-.07.434-.206.099-.1.133-.27.133-.442m.561 1.159c-.13.24-.33.41-.561.547-.201.101-.433.171-.666.207h-.1c-.264 0-.529-.07-.731-.207a1.776 1.776 0 0 1-.562-.547 1.508 1.508 0 0 1-.202-.783c0-.274.067-.511.202-.75.132-.24.33-.412.562-.548a1.33 1.33 0 0 1 .732-.205h.1c.232 0 .464.069.665.205.23.136.431.309.561.547.134.204.2.477.2.75 0 .307-.066.546-.2.784m.3-1.706c-.166-.308-.397-.511-.663-.682a1.578 1.578 0 0 0-.864-.239c-.032-.034-.065-.034-.1-.034-.33.034-.63.102-.93.273-.264.17-.498.374-.664.682-.166.275-.232.581-.232.923 0 .339.066.678.232.953.166.275.4.514.664.686.3.168.6.236.93.236h.1c.297 0 .598-.103.864-.236.266-.172.497-.41.664-.686.167-.275.23-.614.23-.953 0-.342-.063-.648-.23-.923"/>
    </g>
</svg>
