<svg xmlns="http://www.w3.org/2000/svg" width="16" height="16" viewBox="0 0 16 16">
    <g fill="none" fill-rule="evenodd">
        <path d="M0 0h16v16H0z"/>
        <path fill="#0049BC" fill-rule="nonzero" d="M6 10a4 4 0 1 0 0-8 4 4 0 0 0 0 8zm4.89-.523l4.474 4.473-1.414 1.414-4.473-4.473a6 6 0 1 1 1.414-1.414z"/>
    </g>
</svg>
