<svg xmlns="http://www.w3.org/2000/svg" width="10" height="10" viewBox="0 0 10 10">
    <g fill="none" fill-rule="evenodd">
        <path d="M0 0h10v10H0z"/>
        <path fill="#004ABD" d="M3.536 6.071l4.95-4.95 1.413 1.415-4.95 4.95-1.413 1.413L0 5.364 1.414 3.95 3.536 6.07z"/>
    </g>
</svg>
