<svg xmlns="http://www.w3.org/2000/svg" width="40" height="40" viewBox="0 0 40 40">
    <g fill="none" fill-rule="nonzero">
        <path d="M0 0h40v40H0z"/>
        <path stroke="#2B1B35" stroke-width="2" d="M29.794 25.614c0 5.189-4.208 9.397-9.397 9.397S11 30.803 11 25.614c0-6.59 6.261-12.525 8.39-20.02.118-.413.576-.595 1.007-.594.43 0 .888.18 1.006.595 2.122 7.494 8.391 13.43 8.391 20.019z"/>
        <path fill="#DFE6F1" d="M25.897 25.288a5.5 5.5 0 0 1-11 0c0-3.857 3.665-7.33 4.911-11.717.068-.242.337-.349.59-.348.25 0 .519.106.588.348 1.242 4.386 4.911 7.86 4.911 11.717z"/>
    </g>
</svg>
