<svg xmlns="http://www.w3.org/2000/svg" width="10" height="10" viewBox="0 0 10 10">
    <g fill="none" fill-rule="evenodd">
        <path d="M0 0h10v10H0z"/>
        <path stroke="#2B1B35" d="M3.054 1.5L7 5.124 3 8.5"/>
    </g>
</svg>
