<svg xmlns="http://www.w3.org/2000/svg" width="36" height="36" viewBox="0 0 36 36">
    <path fill="#2B1B35" fill-rule="nonzero" d="M18 16.667L26.667 8 28 9.333 19.333 18 28 26.667 26.667 28 18 19.333 9.333 28 8 26.667 16.667 18 8 9.333 9.333 8 18 16.667z"/>
</svg>
