<svg xmlns="http://www.w3.org/2000/svg" width="165" height="165" viewBox="0 0 165 165">
    <g fill="none" fill-rule="evenodd">
        <circle cx="82.5" cy="82.5" r="82.5" fill="#FFF"/>
        <path fill="#2B1B35" fill-rule="nonzero" d="M103.927 110H49.073c-1.175 0-2.073-.867-2.073-2s.898-2 2.073-2h54.854c1.175 0 2.073.867 2.073 2s-.898 2-2.073 2zM117.74 76.45c-.136 0-.342 0-.479-.069l-13.693-3.437a2.062 2.062 0 0 1-1.575-1.994V57.2c0-1.169.89-2.062 2.054-2.062 1.164 0 2.054.893 2.054 2.062v12.169l12.119 3.025c1.095.275 1.78 1.375 1.506 2.475-.205.962-1.027 1.581-1.985 1.581zM91.038 94.325H46.465c-1.164 0-2.054-.894-2.054-2.063V57.2c0-1.169.89-2.063 2.054-2.063h44.573c1.164 0 2.054.894 2.054 2.063v35.063c0 1.168-.89 2.062-2.054 2.062zM48.518 90.2h40.466V59.262H48.519V90.2z"/>
        <path fill="#DFE6F1" d="M67.771 77.914h-3.505l3.505-9.772.167-.557h.085l3.255 10.329H67.77zM71.945 63h-7.846L55 85.327h6.513l1.25-3.215h10.015l1.086 3.215h7.347L71.945 63z"/>
        <path fill="#2B1B35" fill-rule="nonzero" d="M117.74 100.513H46.466c-1.164 0-2.054-.894-2.054-2.063v-6.875c0-1.169.89-2.063 2.054-2.063 1.164 0 2.054.894 2.054 2.063v4.813h69.222c1.164 0 2.054.893 2.054 2.062 0 1.169-.89 2.063-2.054 2.063z"/>
        <path fill="#2B1B35" fill-rule="nonzero" d="M117.74 100.513H97.2c-1.164 0-2.054-.894-2.054-2.063V57.2c0-1.169.89-2.063 2.054-2.063h6.847c4.998 0 9.448 3.026 11.297 7.7l4.314 10.794c.068.275.137.482.137.757V98.45c0 1.169-.89 2.063-2.054 2.063zm-18.486-4.126h16.432V74.8l-4.176-10.45c-1.233-3.094-4.177-5.087-7.463-5.087h-4.793v37.124z"/>
        <g fill-rule="nonzero" transform="translate(51.532 92.813)">
            <ellipse cx="8.627" cy="8.525" fill="#FFF" rx="6.573" ry="6.6"/>
            <path fill="#2B1B35" d="M8.627 17.188c-4.724 0-8.559-3.85-8.559-8.594S3.903 0 8.627 0c4.724 0 8.559 3.85 8.559 8.594s-3.835 8.594-8.559 8.594zm0-13.2c-2.533 0-4.587 2.062-4.587 4.606 0 2.543 2.054 4.606 4.587 4.606s4.587-2.063 4.587-4.606c0-2.544-2.054-4.606-4.587-4.606z"/>
        </g>
        <g fill-rule="nonzero" transform="translate(95.351 92.813)">
            <ellipse cx="8.627" cy="8.525" fill="#FFF" rx="6.573" ry="6.6"/>
            <path fill="#2B1B35" d="M8.627 17.188c-4.724 0-8.559-3.85-8.559-8.594S3.903 0 8.627 0c4.724 0 8.559 3.85 8.559 8.594s-3.835 8.594-8.559 8.594zm0-13.2c-2.533 0-4.587 2.062-4.587 4.606 0 2.543 2.054 4.606 4.587 4.606s4.587-2.063 4.587-4.606c0-2.544-2.054-4.606-4.587-4.606z"/>
        </g>
    </g>
</svg>
