<svg xmlns="http://www.w3.org/2000/svg" width="80" height="80" viewBox="0 0 80 80">
    <g fill="none" fill-rule="evenodd">
        <circle cx="40" cy="40" r="40" fill="#FFF" fill-rule="nonzero"/>
        <path fill="#2B1B35" fill-rule="nonzero" d="M61.927 67H7.073C5.898 67 5 66.133 5 65s.898-2 2.073-2h54.854c1.175 0 2.073.867 2.073 2s-.898 2-2.073 2zM75.74 33.45c-.136 0-.342 0-.479-.069l-13.693-3.437a2.062 2.062 0 0 1-1.575-1.994V14.2c0-1.169.89-2.062 2.054-2.062 1.164 0 2.054.893 2.054 2.062v12.169l12.119 3.025c1.095.275 1.78 1.375 1.506 2.475-.205.962-1.027 1.581-1.985 1.581zM49.038 51.325H4.465c-1.164 0-2.054-.894-2.054-2.063V14.2c0-1.169.89-2.062 2.054-2.062h44.573c1.164 0 2.054.893 2.054 2.062v35.063c0 1.168-.89 2.062-2.054 2.062zM6.518 47.2h40.466V16.262H6.519V47.2z"/>
        <path fill="#DFE6F1" d="M25.771 34.914h-3.505l3.505-9.772.167-.557h.085l3.255 10.329H25.77zM29.945 20h-7.846L13 42.327h6.513l1.25-3.215h10.015l1.086 3.215h7.347L29.945 20z"/>
        <path fill="#2B1B35" fill-rule="nonzero" d="M75.74 57.513H4.466c-1.164 0-2.054-.894-2.054-2.063v-6.875c0-1.169.89-2.063 2.054-2.063 1.164 0 2.054.894 2.054 2.063v4.813H75.74c1.164 0 2.054.893 2.054 2.062 0 1.169-.89 2.063-2.054 2.063z"/>
        <path fill="#2B1B35" fill-rule="nonzero" d="M75.74 57.513H55.2c-1.164 0-2.054-.894-2.054-2.063V14.2c0-1.169.89-2.062 2.054-2.062h6.847c4.998 0 9.448 3.024 11.297 7.7l4.314 10.793c.068.275.137.482.137.756V55.45c0 1.169-.89 2.063-2.054 2.063zm-18.486-4.125h16.432V31.8L69.51 21.35c-1.233-3.094-4.177-5.087-7.463-5.087h-4.793v37.124z"/>
        <g fill-rule="nonzero" transform="translate(9.532 49.813)">
            <ellipse cx="8.627" cy="8.525" fill="#FFF" rx="6.573" ry="6.6"/>
            <path fill="#2B1B35" d="M8.627 17.188c-4.724 0-8.559-3.85-8.559-8.594S3.903 0 8.627 0c4.724 0 8.559 3.85 8.559 8.594s-3.835 8.594-8.559 8.594zm0-13.2c-2.533 0-4.587 2.062-4.587 4.606 0 2.543 2.054 4.606 4.587 4.606s4.587-2.063 4.587-4.606c0-2.544-2.054-4.606-4.587-4.606z"/>
        </g>
        <g fill-rule="nonzero" transform="translate(53.351 49.813)">
            <ellipse cx="8.627" cy="8.525" fill="#FFF" rx="6.573" ry="6.6"/>
            <path fill="#2B1B35" d="M8.627 17.188c-4.724 0-8.559-3.85-8.559-8.594S3.903 0 8.627 0c4.724 0 8.559 3.85 8.559 8.594s-3.835 8.594-8.559 8.594zm0-13.2c-2.533 0-4.587 2.062-4.587 4.606 0 2.543 2.054 4.606 4.587 4.606s4.587-2.063 4.587-4.606c0-2.544-2.054-4.606-4.587-4.606z"/>
        </g>
    </g>
</svg>
