<svg xmlns="http://www.w3.org/2000/svg" width="33" height="33" viewBox="0 0 33 33">
    <g fill="none" fill-rule="evenodd">
        <circle cx="16.5" cy="16.5" r="16.5" fill="#FFF"/>
        <path fill="#0049BC" fill-rule="nonzero" d="M13.282 13.851H11v2.926h2.282v8.776h3.803v-8.776h2.77l.273-2.926h-3.043v-1.22c0-.698.146-.974.848-.974h2.195V8H17.23c-2.735 0-3.95 1.158-3.95 3.375v2.476z"/>
    </g>
</svg>
