<svg xmlns="http://www.w3.org/2000/svg" width="24" height="24" viewBox="0 0 24 24">
    <g fill="none" fill-rule="nonzero">
        <path d="M0 0h24v24H0z"/>
        <path fill="#FFDF6B" d="M12 3a3 3 0 1 1 3 3H9a3 3 0 1 1 3-3zM3 16h8v7H3v-7zm10 0h8v7h-8v-7zM1 8h10v6H1V8zm12 0h10v6H13V8z"/>
    </g>
</svg>
