<svg xmlns="http://www.w3.org/2000/svg" width="165" height="165" viewBox="0 0 165 165">
    <g fill="none" fill-rule="evenodd">
        <circle cx="82.5" cy="82.5" r="82.5" fill="#FFF"/>
        <g fill-rule="nonzero" transform="translate(51.5 43.5)">
            <path fill="#2B1B35" d="M31 77.83c-1.005 0-2.01-.336-2.882-.873l-2.212-1.476C12.502 66.49.036 55.218.036 33.547V8.588c0-.94.67-1.744 1.542-1.946L30.53.067a1.91 1.91 0 0 1 .871 0l28.953 6.441c.939.201 1.542 1.007 1.542 1.946V33.48c0 21.671-12.4 32.943-25.87 41.934l-2.212 1.476c-.67.402-1.34.738-2.145.805a1.68 1.68 0 0 1-.67.134zM4.057 10.197v23.349c0 18.652 9.652 28.918 24.061 38.58l2.212 1.475a.508.508 0 0 0 .268.134c.134 0 .268-.067.402-.067.268 0 .47-.067.67-.201l2.212-1.476c14.41-9.662 24.06-19.86 24.06-38.58V10.065L31 4.093 4.057 10.198z"/>
            <path fill="#2B1B35" d="M30.879 51.29C22.702 51.29 16 44.58 16 36.395 16 28.209 22.702 21.5 30.879 21.5c8.176 0 14.878 6.71 14.878 14.895 0 8.185-6.702 14.895-14.878 14.895zm0-25.764c-5.965 0-10.858 4.898-10.858 10.869s4.893 10.87 10.858 10.87c5.965 0 10.857-4.899 10.857-10.87 0-5.971-4.892-10.87-10.857-10.87z"/>
            <circle cx="31" cy="36.5" r="8.5" fill="#DFE6F1"/>
        </g>
    </g>
</svg>
