<?xml version="1.0" encoding="UTF-8"?>
<svg width="24px" height="24px" viewBox="0 0 24 24" version="1.1" xmlns="http://www.w3.org/2000/svg" xmlns:xlink="http://www.w3.org/1999/xlink">
    <!-- Generator: sketchtool 51.2 (57519) - http://www.bohemiancoding.com/sketch -->
    <title>8DE85215-9C32-4C08-9CCB-54535FF14B6C</title>
    <desc>Created with sketchtool.</desc>
    <defs></defs>
    <g id="Symbols" stroke="none" stroke-width="1" fill="none" fill-rule="evenodd">
        <g id="icon-contacts-04">
            <g>
                <rect id="place" fill-rule="nonzero" x="0" y="0" width="24" height="24"></rect>
                <path d="M12.1605181,14.8753368 L9.37176166,14.8753368 L12.1605181,7.09445596 L12.2932642,6.65088083 L12.3607254,6.65088083 L14.9492746,14.8753368 L12.1605181,14.8753368 Z M15.4809845,3 L12.1605181,3 L9.23937824,3 L2,20.7781865 L7.18108808,20.7781865 L8.17595855,18.2179275 L12.1605181,18.2179275 L16.1439896,18.2179275 L17.0075648,20.7781865 L22.8527461,20.7781865 L15.4809845,3 Z" id="Fill-31" fill="#2B1B35"></path>
            </g>
        </g>
    </g>
</svg>