<svg xmlns="http://www.w3.org/2000/svg" width="80" height="80" viewBox="0 0 80 80">
    <g fill="none" fill-rule="evenodd">
        <path d="M3.197 3.194H80v76.803H3.197z"/>
        <circle cx="54.4" cy="12.8" r="3.2" fill="#DFE6F1" fill-rule="nonzero"/>
        <circle cx="70.4" cy="19.2" r="3.2" fill="#DFE6F1" fill-rule="nonzero"/>
        <path fill="#2B1B35" d="M40.147 11.6c-.022 0-.043 0-.065.002C24.108 12.41 11.6 25.555 11.6 41.528c0 16.542 13.458 30 30 30s30-13.458 30-30v-.314c.004-1.45.008-3.876-.824-4.405-.45-.285-.448-.285-1.18-.074-.571.166-1.355.393-2.396.393-4.133 0-7.69-3.102-8.274-7.216a1.2 1.2 0 0 0-1.807-.86c-1.86 1.112-3.851 1.676-5.92 1.676-6.395 0-11.6-5.203-11.6-11.6 0-1.975.53-3.903 1.577-5.73.22-.381.212-.848-.017-1.22a1.174 1.174 0 0 0-1.012-.578M41.6 75.528c-18.747 0-34-15.252-34-34 0-18.106 14.176-33.005 32.274-33.92a5.168 5.168 0 0 1 4.693 2.476 5.184 5.184 0 0 1 .08 5.304c-.694 1.212-1.047 2.47-1.047 3.74 0 4.19 3.409 7.6 7.6 7.6 1.335 0 2.636-.373 3.867-1.108a5.198 5.198 0 0 1 7.819 3.73c.306 2.153 2.16 3.778 4.314 3.778.472 0 .83-.103 1.28-.234 1.04-.304 2.465-.717 4.443.54 2.69 1.71 2.682 5.368 2.678 7.788l-.001.306c0 18.748-15.252 34-34 34"/>
        <path fill="#DFE6F1" fill-rule="nonzero" d="M19.2 35.2c0-5.3 4.3-9.6 9.6-9.6s9.6 4.3 9.6 9.6-4.3 9.6-9.6 9.6-9.6-4.3-9.6-9.6zM38.4 64c-1.77 0-3.2-1.43-3.2-3.2 0-1.77 1.43-3.2 3.2-3.2 1.77 0 3.2 1.43 3.2 3.2 0 1.77-1.43 3.2-3.2 3.2zM48 51.2c-1.77 0-3.2-1.43-3.2-3.2 0-1.77 1.43-3.2 3.2-3.2 1.77 0 3.2 1.43 3.2 3.2 0 1.77-1.43 3.2-3.2 3.2zM64 54.4c-1.77 0-3.2-1.43-3.2-3.2a3.2 3.2 0 1 1 6.4 0c0 1.77-1.43 3.2-3.2 3.2z"/>
    </g>
</svg>
