<?xml version="1.0" encoding="UTF-8"?>
<svg width="24px" height="24px" viewBox="0 0 24 24" version="1.1" xmlns="http://www.w3.org/2000/svg" xmlns:xlink="http://www.w3.org/1999/xlink">
    <!-- Generator: sketchtool 51.2 (57519) - http://www.bohemiancoding.com/sketch -->
    <title>757FCF3E-21B6-468C-A09D-AFE7DA0D7A59</title>
    <desc>Created with sketchtool.</desc>
    <defs></defs>
    <g id="Symbols" stroke="none" stroke-width="1" fill="none" fill-rule="evenodd">
        <g id="icon-contacts-02" fill-rule="nonzero">
            <g>
                <rect id="place" x="0" y="0" width="24" height="24"></rect>
                <g id="Group" transform="translate(2.000000, 0.000000)" fill="#2B1B35">
                    <path d="M10.4961586,11.3441813 C7.6806119,11.3343909 5.50429462,8.75816431 5.49701983,5.67501416 C5.50429462,2.59186402 7.6806119,0.0144135977 10.4961586,0.00319546742 C13.313745,0.0144135977 15.491966,2.59186402 15.4972011,5.67501416 C15.491898,8.75816431 13.3136771,11.3343909 10.4961586,11.3441813 Z M14.6558414,11.8517847 C19.4903116,12.9408952 20.8228215,15.8869802 20.9231048,19.3878527 C20.9231048,20.8578357 20.6306176,22.4315694 20.1459943,23.9627422 L0.787240793,23.9627422 C0.295478754,22.4363286 0.00557507082,20.8578357 0.00557507082,19.3878527 C0.100623229,15.8738584 1.44224363,12.9272295 6.30227762,11.8465496 C6.30227762,11.8465496 7.75335977,16.2575864 9.16181303,18.450221 C9.20763739,16.9066742 9.49624929,15.6076147 9.90016997,14.9591388 C9.45885552,14.7192068 9.15195467,14.2136431 9.15195467,13.6235014 C9.15195467,12.7998867 9.74345609,12.1337337 10.4724986,12.1337337 C11.2042606,12.1337337 11.7944023,12.7999547 11.7944023,13.6235014 C11.7944023,14.2136431 11.4881813,14.7192068 11.0469348,14.9591388 C11.4527592,15.6114901 11.7413031,16.9230595 11.7852238,18.4789802 C13.1950368,16.2981756 14.6558414,11.8517847 14.6558414,11.8517847 Z" id="Combined-Shape"></path>
                </g>
            </g>
        </g>
    </g>
</svg>