<?xml version="1.0" encoding="UTF-8"?>
<svg width="24px" height="24px" viewBox="0 0 24 24" version="1.1" xmlns="http://www.w3.org/2000/svg" xmlns:xlink="http://www.w3.org/1999/xlink">
    <!-- Generator: sketchtool 51.2 (57519) - http://www.bohemiancoding.com/sketch -->
    <title>2698D9D8-886A-485C-8A52-1E8A240A6E60</title>
    <desc>Created with sketchtool.</desc>
    <defs></defs>
    <g id="Symbols" stroke="none" stroke-width="1" fill="none" fill-rule="evenodd">
        <g id="icon-payments-05" fill-rule="nonzero">
            <g>
                <rect id="place" x="0" y="0" width="24" height="24"></rect>
                <g id="if_13_760208" transform="translate(3.000000, 0.000000)" fill="#000000">
                    <polygon id="Shape" points="13.4 0.8 13.4 5.3 18.35 5.3"></polygon>
                    <path d="M12.4,7.25 C12.15,7.25 11.9,7.15 11.7,6.95 C11.5,6.75 11.4,6.5 11.4,6.25 L11.4,0.25 L1.05,0.25 C0.5,0.25 0.05,0.7 0.05,1.25 L0.05,22.8 C0.05,23.35 0.5,23.8 1.05,23.8 L18,23.8 C18.55,23.8 19,23.35 19,22.8 L19,7.25 L12.4,7.25 Z M14.4,20.2 L4.6,20.2 C4.05,20.2 3.6,19.75 3.6,19.2 C3.6,18.65 4.05,18.2 4.6,18.2 L14.4,18.2 C14.95,18.2 15.4,18.65 15.4,19.2 C15.4,19.75 14.95,20.2 14.4,20.2 Z M14.4,15.95 L4.6,15.95 C4.05,15.95 3.6,15.5 3.6,14.95 C3.6,14.4 4.05,13.95 4.6,13.95 L14.4,13.95 C14.95,13.95 15.4,14.4 15.4,14.95 C15.4,15.5 14.95,15.95 14.4,15.95 Z M14.4,11.65 L4.6,11.65 C4.05,11.65 3.6,11.2 3.6,10.65 C3.6,10.1 4.05,9.65 4.6,9.65 L14.4,9.65 C14.95,9.65 15.4,10.1 15.4,10.65 C15.4,11.25 14.95,11.65 14.4,11.65 Z" id="Shape"></path>
                </g>
            </g>
        </g>
    </g>
</svg>