<svg xmlns="http://www.w3.org/2000/svg" width="10" height="10" viewBox="0 0 10 10">
    <g fill="none" fill-rule="evenodd">
        <path fill-rule="nonzero" d="M0 0h10v10H0z"/>
        <path stroke="#0049BC" d="M8.435 6L4.964 9.16 1.5 6.036"/>
        <path stroke="#0049BC" stroke-linecap="square" d="M5 8V1"/>
    </g>
</svg>
