<svg xmlns="http://www.w3.org/2000/svg" width="16" height="16" viewBox="0 0 16 16">
    <g fill="none" fill-rule="evenodd">
        <path d="M0 0h16v16H0z"/>
        <path fill="#000" d="M.297 11.792l2.156-2.154a1.017 1.017 0 0 1 1.44 0l1.212 1.21c.837-.562 2.022-1.57 3.101-2.648 1.054-1.053 2.088-2.262 2.652-3.1L9.644 3.89a1.016 1.016 0 0 1 0-1.438L11.8.298a1.014 1.014 0 0 1 1.436 0l2.158 2.154c.923.922.515 1.953.515 1.953-.98 2.153-2.346 4.188-4.83 6.668-2.491 2.492-4.518 3.844-6.672 4.824 0 0-.999.44-1.955-.513L.297 13.228a1.017 1.017 0 0 1 0-1.436"/>
    </g>
</svg>
