<svg xmlns="http://www.w3.org/2000/svg" width="165" height="165" viewBox="0 0 165 165">
    <g fill="none" fill-rule="evenodd">
        <circle cx="82.5" cy="82.5" r="82.5" fill="#F1F6FF"/>
        <g fill-rule="nonzero">
            <path fill="#C5CFDF" d="M75.129 74C73.953 74 73 73.105 73 72c0-1.104.953-2 2.129-2h17.742c1.176 0 2.129.896 2.129 2 0 1.105-.953 2-2.13 2H75.13zM48 74.166H28.062A2.073 2.073 0 0 1 26 72.083c0-1.15.924-2.083 2.063-2.083H48v4.166zm0 10.418H31.5a2.073 2.073 0 0 1-2.062-2.084c0-1.15.924-2.083 2.062-2.083H48v4.167zM48 95H34.938a2.073 2.073 0 0 1-2.063-2.083c0-1.15.924-2.084 2.063-2.084H48V95z"/>
            <path fill="#2B1B35" d="M111.78 64.246H56.22v.995c0 1.429.936 2.091 2.387 3.119L84 86.634l25.392-18.274c1.452-1.027 2.388-1.69 2.388-3.119v-.995zM55.842 60h56.316c2.06 0 3.842 1.643 3.842 3.75v38.5c0 2.107-1.782 3.75-3.843 3.75H55.842c-2.06 0-3.842-1.643-3.842-3.75v-38.5c0-2.107 1.782-3.75 3.842-3.75zm.378 11.85v26.848l16.858-14.72-16.28-11.717-.578-.41zm2.92 29.903h49.72L91.403 86.511l-6.183 4.451a2.095 2.095 0 0 1-2.48-.028l-6.144-4.423-17.456 15.242zm52.64-3.055V71.851L94.922 83.979l16.858 14.72z"/>
        </g>
    </g>
</svg>
