<svg xmlns="http://www.w3.org/2000/svg" width="40" height="40" viewBox="0 0 40 40">
    <g fill="none" fill-rule="evenodd">
        <path d="M0 0h40v40H0z"/>
        <path stroke="#2B1B35" stroke-width="2" d="M9.91 17.617C3.552 9.18 11.894 3.107 19.82 3.001c7.95-.105 16.208 5.505 10.032 14.616 5.422 6.606 3.385 15.822-2.66 18.69-1.398.975-13.347.867-14.636.012-5.497-3.648-7.87-12.002-2.647-18.702zm4.068-2.538c3.919-2.164 7.921-2.1 11.84.064 4.142-4.865-.95-7.898-5.997-7.897-5.204 0-9.917 3.639-5.843 7.833z"/>
        <path fill="#DFE6F1" d="M15.328 30h-2.626v-8.671h4.628c.98 0 1.744.284 2.294.851.55.568.826 1.277.826 2.126 0 .84-.275 1.545-.826 2.113-.55.567-1.315.851-2.294.851h-2.002V30zm1.664-5.018c.234 0 .425-.058.572-.175.147-.118.221-.284.221-.501 0-.225-.074-.396-.221-.514-.147-.117-.338-.175-.572-.175h-1.664v1.365h1.664zm6.604 2.691c.225.277.55.416.975.416.33 0 .607-.11.832-.331.225-.222.338-.523.338-.904 0-.373-.113-.67-.338-.89a1.142 1.142 0 0 0-.832-.332c-.416 0-.741.143-.975.429v1.612zm0 2.327h-2.34v-8.671h2.34v3.055c.45-.546 1.04-.819 1.768-.819.797 0 1.458.295 1.982.884.525.59.787 1.391.787 2.405 0 1.04-.262 1.85-.787 2.431-.524.58-1.185.871-1.982.871-.693 0-1.283-.273-1.768-.819V30z"/>
    </g>
</svg>
