<svg xmlns="http://www.w3.org/2000/svg" width="16" height="16" viewBox="0 0 16 16">
    <g fill="none" fill-rule="evenodd">
        <path d="M0 0h16v16H0z"/>
        <path stroke="#FFF" stroke-width="2" d="M10.87 1L4 8.396 10.87 15"/>
    </g>
</svg>
