<svg xmlns="http://www.w3.org/2000/svg" width="24" height="24" viewBox="0 0 24 24">
    <g fill="none" fill-rule="nonzero">
        <path d="M0 0h24v24H0z"/>
        <path fill="#0049BC" d="M21.512 1.875c-2.5-2.5-6.55-2.5-9.05 0l-11.2 11.25c-.35.35-.35.9 0 1.2.35.35.9.35 1.2 0l11.25-11.2c1.8-1.8 4.8-1.8 6.6 0 1.8 1.8 1.8 4.8 0 6.6l-11.15 11.2c-1.15 1.15-3 1.2-4.1.1-1.1-1.1-1.05-2.95.1-4.1l9.8-9.8c.55-.55 1.45-.65 1.9-.15.5.5.4 1.35-.15 1.9l-7.4 7.3c-.35.35-.35.9 0 1.2.35.35.9.35 1.2 0l7.4-7.4c1.25-1.25 1.3-3.2.15-4.35-1.15-1.15-3.1-1.1-4.35.15l-9.8 9.9c-1.85 1.85-1.9 4.8-.1 6.55 1.75 1.75 4.65 1.75 6.5-.05 0 0 .05 0 .05-.05l11.2-11.2c2.45-2.45 2.45-6.55-.05-9.05z"/>
    </g>
</svg>
