<svg xmlns="http://www.w3.org/2000/svg" width="165" height="165" viewBox="0 0 165 165">
    <g fill="none" fill-rule="evenodd">
        <circle cx="82.5" cy="82.5" r="82.5" fill="#F1F6FF"/>
        <path fill="#2B1B35" fill-rule="nonzero" d="M85 83.243l3.657-3.657a2 2 0 0 1 2.828 2.828l-7.07 7.071a2 2 0 0 1-2.83 0l-7.07-7.07a2 2 0 0 1 2.828-2.83L81 83.244V64a2 2 0 1 1 4 0v19.243zm25.075-15.784a2 2 0 0 1 3.85 1.082l-9 32A2 2 0 0 1 103 102H62a2 2 0 0 1-1.94-1.515L49.438 58H36a2 2 0 1 1 0-4h15a2 2 0 0 1 1.94 1.515L63.562 98h37.923l8.59-30.541zM97.09 122a7.818 7.818 0 1 1 0-15.636 7.818 7.818 0 0 1 0 15.636zm0-4a3.818 3.818 0 1 0 0-7.636 3.818 3.818 0 0 0 0 7.636zM68 122a7.818 7.818 0 1 1 0-15.636A7.818 7.818 0 0 1 68 122zm0-4a3.818 3.818 0 1 0 0-7.636A3.818 3.818 0 0 0 68 118z"/>
    </g>
</svg>
