<svg xmlns="http://www.w3.org/2000/svg" width="33" height="33" viewBox="0 0 33 33">
    <g fill="none" fill-rule="evenodd">
        <circle cx="16.5" cy="16.5" r="16.5" fill="#FFF"/>
        <path fill="#0049BC" d="M13 23h-3V12h3zM11.75 10.528c-.966 0-1.75-.79-1.75-1.764S10.784 7 11.75 7s1.75.79 1.75 1.764-.783 1.764-1.75 1.764zM25 23h-3v-5.604c0-3.368-4-3.113-4 0V23h-3V12h3v1.765c1.396-2.586 7-2.777 7 2.476v6.76z"/>
    </g>
</svg>
